set term tikz size 6.5cm,4cm
set output "LSW1-1X1.tex"
set key Left right top at screen .975,.9 width 2 samplen 0.5
set xrange [0:21]
set x2range [0:1.75]
set yrange [0:3.7]
set xlabel "top displacement (\\si{\\milli\\metre})"
set x2label "drift ratio (\\si{\\percent})"
set ylabel "base resistance (\\SI{E2}{\\kilo\\newton})"
set xtics nomirror in 0,3,12
set x2tics nomirror in 0,.25,1
set ytics nomirror in 0,1,3
set mytics 2
set margins 0,0,0,0
unset grid
set border 15
plot "LSW1-EXP" using 1:($2)/100 w l lw 2 lc rgb "#999999" title "LSW1",\
     "LSW1-1X1" using 1:($2)/100000 w lp pointinterval 37 lw 3 lc rgb "#e7298a" title "(S)GCMQI",\
     "LSW1-1X1" using 1:($3)/100000 w lp pointinterval 47 lw 3 lc rgb "#7570b3" title "(S)GCMQL",\
     "LSW1-1X1" using 1:($4)/100000 w lp pointinterval 59 lw 3 lc rgb "#d95f02" title "(S)GCMQG",\
     "LSW1-1X1" using 1:($5)/100000 w lp pointinterval 67 lw 3 lc rgb "#1b9e77" title "Q4"
set output