%!PS-Adobe-3.0 EPSF-3.0
%%Creator: cairo 1.14.1 (http://cairographics.org)
%%CreationDate: Sat Oct 29 16:37:25 2016
%%Pages: 1
%%DocumentData: Clean7Bit
%%LanguageLevel: 2
%%BoundingBox: 0 -1 2586 504
%%EndComments
%%BeginProlog
save
50 dict begin
/q { gsave } bind def
/Q { grestore } bind def
/cm { 6 array astore concat } bind def
/w { setlinewidth } bind def
/J { setlinecap } bind def
/j { setlinejoin } bind def
/M { setmiterlimit } bind def
/d { setdash } bind def
/m { moveto } bind def
/l { lineto } bind def
/c { curveto } bind def
/h { closepath } bind def
/re { exch dup neg 3 1 roll 5 3 roll moveto 0 rlineto
      0 exch rlineto 0 rlineto closepath } bind def
/S { stroke } bind def
/f { fill } bind def
/f* { eofill } bind def
/n { newpath } bind def
/W { clip } bind def
/W* { eoclip } bind def
/BT { } bind def
/ET { } bind def
/pdfmark where { pop globaldict /?pdfmark /exec load put }
    { globaldict begin /?pdfmark /pop load def /pdfmark
    /cleartomark load def end } ifelse
/BDC { mark 3 1 roll /BDC pdfmark } bind def
/EMC { mark /EMC pdfmark } bind def
/cairo_store_point { /cairo_point_y exch def /cairo_point_x exch def } def
/Tj { show currentpoint cairo_store_point } bind def
/TJ {
  {
    dup
    type /stringtype eq
    { show } { -0.001 mul 0 cairo_font_matrix dtransform rmoveto } ifelse
  } forall
  currentpoint cairo_store_point
} bind def
/cairo_selectfont { cairo_font_matrix aload pop pop pop 0 0 6 array astore
    cairo_font exch selectfont cairo_point_x cairo_point_y moveto } bind def
/Tf { pop /cairo_font exch def /cairo_font_matrix where
      { pop cairo_selectfont } if } bind def
/Td { matrix translate cairo_font_matrix matrix concatmatrix dup
      /cairo_font_matrix exch def dup 4 get exch 5 get cairo_store_point
      /cairo_font where { pop cairo_selectfont } if } bind def
/Tm { 2 copy 8 2 roll 6 array astore /cairo_font_matrix exch def
      cairo_store_point /cairo_font where { pop cairo_selectfont } if } bind def
/g { setgray } bind def
/rg { setrgbcolor } bind def
/d1 { setcachedevice } bind def
%%EndProlog
%%BeginSetup
%%EndSetup
%%Page: 1 1
%%BeginPageSetup
%%PageBoundingBox: 0 -1 2586 504
%%EndPageSetup
q 0 -1 2586 505 rectclip q
0 g
26.836 2.088 m 22.633 6.541 21.098 12.635 18.348 17.956 c 19.082 29.827
 23.07 41.178 24.402 52.967 c 21.168 60.147 26.453 69.565 34.254 70.577 
c 45.676 77.491 49.805 90.979 57.863 100.913 c 106.258 165.057 147.949 234.553
 178.703 308.889 c 182.922 318.748 186.875 328.803 192.73 337.834 c 195.348
 342.358 195.02 349.303 189.836 351.807 c 184.965 354.362 179.313 352.459
 174.715 350.28 c 139.469 340.334 102.918 336.604 66.961 330.182 c 54.871
 328.721 42.27 330.827 31.66 336.932 c 21.094 342.182 11.094 348.514 1.586
 355.491 c -2.254 360.092 1.332 368.491 7.477 368.401 c 15.535 369.823 23.801
 369.131 31.871 370.526 c 46.82 371.799 61.836 370.901 76.777 370.159 c 
96.52 371.233 115.594 377.729 135.426 377.897 c 151.836 379.752 167.84 385.127
 182.023 393.592 c 196.258 396.807 211.32 395.237 225.18 400.291 c 237.203
 402.67 250.719 403.725 261.656 397.155 c 272.488 389.19 275.012 373.522
 270.211 361.487 c 265.961 348.788 256.879 338.362 252.688 325.639 c 246.887
 315.452 237.367 307.889 232.188 297.291 c 223.805 283.702 215.273 270.127
 205.098 257.788 c 187.727 232.35 172.273 205.475 152.215 181.975 c 133.625
 150.491 108.582 123.381 90.219 91.748 c 86.844 86.307 82.684 80.545 82.758
 73.901 c 84.223 68.104 91.813 64.92 96.945 68.03 c 108.031 72.327 119.461
 75.647 131.113 77.995 c 156.766 83.823 182.746 88.905 209.074 90.159 c 
220.719 90.452 232.531 89.456 243.641 85.772 c 253.621 80.823 250.566 63.299
 239.59 61.815 c 230.305 60.479 220.93 62.28 211.727 63.495 c 199.969 65.377
 187.973 66.799 176.105 65.069 c 141.691 62.873 109.195 49.752 78.344 35.194
 c 66.004 28.799 54.98 19.358 48 7.229 c 43.105 1.373 33.797 -2.654 26.836
 2.088 c h
577.922 46.979 m 570.305 49.885 564.52 56.014 557.102 59.303 c 552.953 
79.319 555.301 100.245 549.422 119.963 c 541.074 178.131 540.855 237.311
 546.926 295.709 c 549.285 302.698 539.977 309.795 533.855 305.69 c 490.664
 291.807 447.352 275.182 411.176 247.127 c 402.082 240.198 392.434 232.299
 388.996 220.936 c 383.938 201.491 386.027 181.151 383.23 161.385 c 382.109
 153.948 380.453 146.612 379.277 139.178 c 377.25 129.1 374.875 118.897 
370.48 109.584 c 362.313 99.463 344.949 100.206 337.109 110.37 c 331.598
 115.877 328.211 123.069 325.527 130.288 c 321.766 134.248 315.996 136.94
 314.621 142.67 c 315.617 150.569 323.672 156.022 323.051 164.327 c 327.281
 192.077 331.168 220.139 329.449 248.28 c 330.266 281.62 336.164 314.545
 338.691 347.756 c 340.461 364.295 343.457 380.694 345.387 397.202 c 345.152
 403.073 343.227 408.741 340.664 413.975 c 339.613 420.643 348.078 426.303
 353.844 422.811 c 362.633 419.663 370.586 414.612 379.191 411.065 c 390.824
 403.784 396.848 389.424 395.414 375.971 c 395.141 355.166 391.148 334.491
 392.566 313.655 c 392.086 302.518 389.297 291.26 391.449 280.159 c 393.578
 274.565 401.527 271.909 406.141 276.159 c 412.262 280.038 417.652 285.178
 424.555 287.706 c 444.457 297.694 465.074 306.233 485.984 313.85 c 503.414
 319.225 521.246 323.381 538.234 330.116 c 548.629 338.088 548.715 355.315
 539.375 364.135 c 535.688 369.459 539.031 377.346 544.777 379.604 c 552.867
 385.073 552.914 397.245 561.922 401.768 c 572.02 408.541 587.289 404.073
 592.246 392.979 c 597.078 383.241 595.551 372.03 595.664 361.541 c 594.883
 341.163 591.98 320.799 593.582 300.381 c 594.309 273.096 593.441 245.799
 592.488 218.53 c 591.953 191.866 593.051 165.209 593.988 138.569 c 593.934
 113.995 594.641 89.401 596.301 64.889 c 595.867 58.413 595.402 50.346 589.145
 46.678 c 585.668 44.94 581.258 44.866 577.922 46.979 c h
1648.793 70.28 m 1643.484 85.487 1650.926 101.854 1645.785 117.104 c 1642.07
 132.284 1638.719 147.557 1635.617 162.87 c 1634.652 168.268 1631.875 173.452
 1632.656 179.022 c 1632.926 183.151 1632.918 187.932 1629.715 191.018 c
 1623.418 192.893 1617.73 188.081 1614.137 183.444 c 1604.41 174.702 1590.832
 173.405 1578.508 171.225 c 1538.91 165.241 1495.91 178.897 1469.332 209.393
 c 1454.004 227.381 1445.527 251.627 1448.316 275.28 c 1452.895 295.479 
1462.598 313.979 1468.848 333.635 c 1479.102 356.799 1492.258 378.588 1506.688
 399.358 c 1521.93 416.467 1539.879 431.17 1559.52 442.944 c 1569.066 447.627
 1579.875 452.334 1590.695 449.791 c 1596.625 447.616 1603.613 443.584 1603.91
 436.495 c 1604.266 427.077 1598.055 417.663 1589.051 414.663 c 1580.426
 408.709 1575.852 397.889 1565.77 393.881 c 1559.785 395.647 1551.57 394.319
 1548.988 387.901 c 1530.152 352.225 1512.43 315.959 1495.559 279.319 c 
1489.313 263.073 1486.262 244.123 1493.746 227.748 c 1503.238 206.819 1525.359
 192.819 1548.172 191.995 c 1568 189.51 1589.605 192.67 1605.727 205.17 
c 1617.07 216.229 1621.566 232.764 1620.574 248.268 c 1621.297 257.92 1619.324
 269.416 1610.5 274.979 c 1600.184 280.12 1588.441 277.178 1577.641 275.639
 c 1568.574 274.256 1558.035 274.799 1551.129 281.592 c 1546.535 288.538
 1551.379 299.459 1559.707 300.483 c 1588.992 311.209 1620.605 311.182 1651.367
 312.12 c 1662.566 312.702 1674.492 314.741 1685.043 309.76 c 1696.828 302.471
 1701.234 286.37 1696.523 273.643 c 1687.75 237.944 1679.828 201.53 1680.613
 164.561 c 1679.172 142.37 1673.543 120.752 1670.211 98.831 c 1668.238 91.604
 1662.816 86.163 1658.238 80.522 c 1655.789 76.627 1653.902 71.26 1648.793
 70.28 c h
1631.195 269.545 m 1629.465 275.647 1632.848 282.01 1630.754 288.065 c 
1624.691 291.858 1617.219 292.194 1610.293 291.526 c 1604.457 294.963 1602.574
 282.608 1608.688 282.936 c 1613.695 283.815 1617.996 279.76 1621.008 276.209
 c 1623.789 273.51 1626.297 266.557 1631.195 269.545 c h
1987.57 72.702 m 1974.355 76.487 1964.457 86.565 1952.883 93.416 c 1947.855
 97.647 1953.152 107.323 1959.426 105.299 c 1970.473 103.518 1982.629 101.651
 1992.98 107.077 c 2030.703 131.381 2060.027 166.174 2086.656 201.776 c 
2095.348 212.553 2106.832 221.514 2112.164 234.655 c 2115.961 251.229 2111.297
 268.764 2116.961 285.041 c 2127.656 334.342 2140.703 383.854 2164.852 428.491
 c 2176.492 449.518 2190.328 469.909 2209.059 485.276 c 2223.773 496.737
 2242.23 504.631 2261.16 503.37 c 2271.867 501.506 2277.934 488.893 2274.578
 478.963 c 2272.492 471.448 2269.375 464.264 2267.246 456.756 c 2247.754
 399.483 2219.289 345.924 2192.891 291.663 c 2184.383 275.616 2174.723 260.178
 2166.973 243.733 c 2164.156 229.799 2169.543 215.913 2175.508 203.553 c
 2189.047 180.151 2219.629 168.971 2245.27 176.975 c 2270.352 183.166 2293.543
 198.084 2308.293 219.463 c 2314.75 232.217 2311.633 246.858 2313.359 260.498
 c 2316.871 285.334 2333.832 307.709 2356.727 317.92 c 2366.242 323.268 
2374.617 332.049 2386.148 332.608 c 2396.598 333.108 2406.754 329.483 2416.277
 325.569 c 2423.871 322.526 2424.844 312.104 2420.453 306.034 c 2417.645
 301.76 2412.156 300.916 2408.734 297.252 c 2397.555 287.893 2390.902 274.659
 2383.109 262.635 c 2370.883 246.452 2361.137 228.608 2351.273 210.936 c
 2347.195 199.916 2357.09 187.452 2368.492 187.373 c 2378.848 186.553 2388.926
 189.975 2398.688 192.967 c 2424.313 202.276 2445.754 219.87 2465.719 237.952
 c 2482.016 253.073 2496.965 269.565 2511.52 286.346 c 2514.543 291.702 
2511.797 297.768 2510.766 303.264 c 2512.223 309.889 2519.32 312.373 2524.871
 314.682 c 2534.699 320.084 2542.73 329.584 2554.434 330.913 c 2568.031 
332.647 2581.094 318.971 2578.586 305.456 c 2576.375 283.573 2571.215 261.284
 2576.156 239.389 c 2576.629 233.139 2572.891 227.506 2568.621 223.295 c
 2565.965 217.127 2565.715 209.045 2559.41 205.182 c 2550.098 199.366 2536.051
 206.94 2535.773 217.909 c 2533.988 228.116 2535.559 238.873 2531.77 248.713
 c 2531.254 254.256 2527.484 261.018 2521.195 260.776 c 2513.977 259.663
 2510.707 252.381 2506.398 247.424 c 2479.883 217.362 2447.695 190.928 2409.527
 177.385 c 2393.559 171.991 2376.262 167.049 2359.402 171.092 c 2349.441
 173.995 2341.598 181.432 2332.004 185.03 c 2326 185.706 2319.973 182.635
 2316.387 177.889 c 2282.023 151.69 2234.918 141.409 2193.352 154.62 c 2173.359
 160.815 2155.551 173.041 2141.531 188.452 c 2136.523 192.049 2129.02 190.272
 2125.727 185.186 c 2119.164 177.971 2115.34 168.596 2107.973 162.061 c 
2085.242 135.737 2062.219 108.799 2032.766 89.721 c 2023.91 82.834 2015.703
 73.538 2003.961 72.01 c 1998.508 71.225 1992.969 71.803 1987.57 72.702 
c h
2179.031 346.194 m 2186.254 361.229 2190.789 377.67 2200.563 391.389 c 
2205.863 409.077 2213.203 426.049 2220.09 443.159 c 2221.047 449.143 2217.707
 455.612 2212.152 458.12 c 2206.227 458.073 2200.906 452.959 2200.426 447.088
 c 2188.863 420.248 2185.75 390.928 2180.016 362.534 c 2179.742 357.147 
2174.715 351.166 2179.031 346.194 c h
697.02 96.608 m 686.777 106.049 681.02 120.002 681.191 133.889 c 679.344
 144.784 680.313 156.213 676.262 166.678 c 676.207 172.717 680.773 178.245
 686.488 179.889 c 696.168 188.713 697.539 202.502 703.582 213.518 c 727.082
 264.592 746.238 317.495 767.762 369.401 c 774.109 386.538 780.656 403.666
 789.141 419.885 c 790.516 425.393 787.125 431.413 790.254 436.592 c 794.613
 440.51 802.457 438.541 804.676 433.19 c 809.926 427.373 819.383 427.276
 825.688 431.377 c 837.352 434.678 849.738 427.995 856.289 418.413 c 881.207
 385.51 894.727 345.733 904.574 306.092 c 906.43 300.459 906.191 293.311
 911.57 289.561 c 915.836 286.495 921.859 285.866 926.531 288.381 c 935.797
 290.295 943 276.756 936.176 270.174 c 931.172 266.186 923.348 266.983 919.488
 261.358 c 916.777 249.983 923.566 239.506 925.77 228.678 c 934.031 201.721
 946.828 175.823 949.797 147.479 c 950.676 139.772 950.742 131.459 946.328
 124.709 c 942.387 117.6 934.098 114.334 926.262 114.549 c 913.984 114.553
 903.07 120.94 891.309 123.534 c 872.617 128.655 852.855 132.85 837.09 144.772
 c 825.434 153.92 815.996 167.69 816.215 182.987 c 817.109 195.42 825.766
 205.088 831.574 215.518 c 837.434 226.592 842.949 238.1 851.496 247.416
 c 856.688 255.467 855.461 266.385 850.234 274.104 c 843.32 293.772 843.328
 315.237 835.289 334.581 c 830.762 349.682 825.973 364.702 821.383 379.784
 c 822.293 386.682 810.902 390.541 807.824 384.065 c 803.141 373.651 802.129
 361.819 796.016 352.006 c 787.828 332.971 783.395 312.651 777.273 292.932
 c 768.07 266.577 757.957 240.471 751.098 213.373 c 741.277 184.088 727.73
 155.588 724.371 124.553 c 724.473 115.018 723.066 103.709 714.48 97.928
 c 709.465 94.553 702.363 93.159 697.02 96.608 c h
872.34 180.225 m 874.691 187.663 875.098 196.073 871.766 203.288 c 872.594
 208.334 868.195 214.944 862.617 213.686 c 857.383 211.764 856.77 205.245
 857.391 200.467 c 858.617 192.221 857.586 182.768 863.313 175.971 c 866.469
 173.663 874.473 174.85 872.34 180.225 c h
1046.699 107.862 m 1031.879 120.795 1024.344 140.077 1021.332 159.116 c
 1019.422 165.338 1016.367 171.291 1011.938 176.1 c 1010.223 181.729 1015.527
 188.108 1021.371 187.452 c 1026.699 189.901 1030.055 195.897 1029.578 201.709
 c 1036.324 230.37 1044.109 258.772 1051.07 287.381 c 1050.742 293.385 1050.441
 299.831 1053.484 305.26 c 1056.957 315.639 1052.602 327.752 1059.121 337.256
 c 1067.254 346.225 1073.02 357.827 1073.344 370.081 c 1077.117 381.268 
1081.945 392.998 1079.609 405.022 c 1079.227 410.784 1085.914 416.713 1091.426
 413.596 c 1099.914 408.815 1105.367 400.381 1110.949 392.694 c 1117.855
 380.959 1122.883 367.698 1133.16 358.327 c 1140.984 349.612 1146.871 339.088
 1149.523 327.643 c 1157.289 303.772 1164.539 279.709 1170.711 255.377 c
 1175.414 231.327 1178.145 206.174 1190.266 184.405 c 1194.34 176.495 1199.551
 168.569 1207.594 164.248 c 1215.258 162.248 1222.629 167.393 1227.125 173.19
 c 1252.859 198.858 1268.863 232.225 1282.176 265.577 c 1299.27 308.577 
1311.957 353.358 1319.656 398.987 c 1321.098 408.358 1320.863 417.944 1322.211
 427.288 c 1325.242 435.366 1333.91 438.995 1341.648 441.045 c 1351.035 
444.534 1361.887 448.108 1371.605 443.885 c 1377.824 439.905 1380.016 431.096
 1376.914 424.502 c 1360.77 344.881 1335.699 266.241 1294.578 195.803 c 
1279.801 170.944 1259.254 148.76 1233.191 135.627 c 1218.652 130.041 1202.59
 133.85 1188.688 139.495 c 1160.09 150.034 1136.324 173.342 1126.02 202.12
 c 1120.98 213.901 1116.855 226.041 1112.879 238.213 c 1114.742 243.842 
1110.035 250.729 1103.988 250.538 c 1096.957 247.592 1095.367 239.366 1093.445
 232.819 c 1084.668 206.268 1074.57 179.846 1070.965 151.952 c 1071.234 
140.901 1076.602 129.952 1073.477 118.897 c 1069.445 109.077 1056.574 102.1
 1046.699 107.862 c h
2562.586 421.202 m 2549.793 424.034 2536.563 424.467 2523.535 423.362 c
 2516.293 424.19 2514.492 435.94 2521.156 438.893 c 2532.344 447.139 2542.938
 457.706 2557.156 460.217 c 2570.086 461.893 2583.457 452.194 2585.605 439.28
 c 2585.621 427.998 2573.617 418.28 2562.586 421.202 c h
2562.586 421.202 m f
Q Q
showpage
%%Trailer
end restore
%%EOF
